Understanding the US Financial Services market
…
State-level (aggregating all mortgages in a state)

Region Type (aggregating metro" or heavily urbanized areas within a state, and comparing these against the rest of the state)

Delinquency Rates

Delinquency starts at 30 days overdue, and it is often an early indicator of financial stress. We see that 

mean delinquency rates follow a cyclic pattern or seasonality delinquency is lowest at the start of a year (e.g., Feb 10 or Mar 11 or Feb 12) and increases gradually to hit the peak at the end of the year (e.g., Dec 10 or Dec 11 or Dec 12)

mean delinquency rates in the non-metro areas mirrored those in the metro areas up to 2013, post which metro areas saw lower delinquencies compared to non-metro areas

del_by_metro

## # A tibble: 378 x 6
## # Groups:   RegionType [?]
##    RegionType Month      mean_del max_del min_del del_diff
##    <chr>      <date>        <dbl>   <dbl>   <dbl>    <dbl>
##  1 MetroArea  2008-01-01     3.46     9.3     1        8.3
##  2 MetroArea  2008-02-01     3.17     7.2     1.1      6.1
##  3 MetroArea  2008-03-01     2.99     6.5     1.1      5.4
##  4 MetroArea  2008-04-01     3.01     8.1     1        7.1
##  5 MetroArea  2008-05-01     3.17     8.6     0.9      7.7
##  6 MetroArea  2008-06-01     3.10     7.8     1.1      6.7
##  7 MetroArea  2008-07-01     3.25     7.9     0.7      7.2
##  8 MetroArea  2008-08-01     3.49     9.2     1        8.2
##  9 MetroArea  2008-09-01     3.51     9.2     1.3      7.9
## 10 MetroArea  2008-10-01     3.71     9.4     1.3      8.1
## # ... with 368 more rows
…
