Static Visualizations
…
## Delinquency (30-89 days overdue) Rates by month at County, State, State-Area type level 
del_county = read_csv("datasets/mortgage-performance/CountyMortgagesPercent-30-89DaysLate-thru-2018-06.csv")

## Non-Performing Asset (90+ days overdue) Rates by month at County, State, State-Area type level
npa_county = read_csv("datasets/mortgage-performance/CountyMortgagesPercent-90-plusDaysLate-thru-2018-06.csv")

del_county

## # A tibble: 469 x 130
##    RegionType State Name  FIPSCode `2008-01` `2008-02` `2008-03` `2008-04`
##    <chr>      <chr> <chr> <chr>        <dbl>     <dbl>     <dbl>     <dbl>
##  1 National   <NA>  Unit~ -----          3.5       3.2       3.1       3.1
##  2 County     AL    Bald~ '01003'        2.8       3.1       3.1       2.6
##  3 County     AL    Jeff~ '01073'        5.2       4.7       4.5       4.8
##  4 County     AL    Lee ~ '01081'        3.6       4.3       4.2       3.6
##  5 County     AL    Madi~ '01089'        3.6       3.3       3.4       3  
##  6 County     AL    Mobi~ '01097'        5.1       4.5       4.8       4.9
##  7 County     AL    Mont~ '01101'        5.9       5.3       5.2       5.3
##  8 County     AL    Shel~ '01117'        3         3         3.3       2.8
##  9 County     AL    Tusc~ '01125'        3.9       3.1       3.1       3.5
## 10 County     AK    Anch~ '02020'        2.9       2.6       2.6       2.5
## # ... with 459 more rows, and 122 more variables: `2008-05` <dbl>,
## #   `2008-06` <dbl>, `2008-07` <dbl>, `2008-08` <dbl>, `2008-09` <dbl>,
## #   `2008-10` <dbl>, `2008-11` <dbl>, `2008-12` <dbl>, `2009-01` <dbl>,
## #   `2009-02` <dbl>, `2009-03` <dbl>, `2009-04` <dbl>, `2009-05` <dbl>,
## #   `2009-06` <dbl>, `2009-07` <dbl>, `2009-08` <dbl>, `2009-09` <dbl>,
## #   `2009-10` <dbl>, `2009-11` <dbl>, `2009-12` <dbl>, `2010-01` <dbl>,
## #   `2010-02` <dbl>, `2010-03` <dbl>, `2010-04` <dbl>, `2010-05` <dbl>,
## #   `2010-06` <dbl>, `2010-07` <dbl>, `2010-08` <dbl>, `2010-09` <dbl>,
## #   `2010-10` <dbl>, `2010-11` <dbl>, `2010-12` <dbl>, `2011-01` <dbl>,
…
